(kicad_pcb (version 20211014) (generator pcbnew)

  (general
    (thickness 1.6)
  )

  (paper "A4")
  (layers
    (0 "F.Cu" signal)
    (31 "B.Cu" signal)
    (32 "B.Adhes" user "B.Adhesive")
    (33 "F.Adhes" user "F.Adhesive")
    (34 "B.Paste" user)
    (35 "F.Paste" user)
    (36 "B.SilkS" user "B.Silkscreen")
    (37 "F.SilkS" user "F.Silkscreen")
    (38 "B.Mask" user)
    (39 "F.Mask" user)
    (40 "Dwgs.User" user "User.Drawings")
    (41 "Cmts.User" user "User.Comments")
    (42 "Eco1.User" user "User.Eco1")
    (43 "Eco2.User" user "User.Eco2")
    (44 "Edge.Cuts" user)
    (45 "Margin" user)
    (46 "B.CrtYd" user "B.Courtyard")
    (47 "F.CrtYd" user "F.Courtyard")
    (48 "B.Fab" user)
    (49 "F.Fab" user)
    (50 "User.1" user)
    (51 "User.2" user)
    (52 "User.3" user)
    (53 "User.4" user)
    (54 "User.5" user)
    (55 "User.6" user)
    (56 "User.7" user)
    (57 "User.8" user)
    (58 "User.9" user)
  )

  (setup
    (stackup
      (layer "F.SilkS" (type "Top Silk Screen"))
      (layer "F.Paste" (type "Top Solder Paste"))
      (layer "F.Mask" (type "Top Solder Mask") (thickness 0.01))
      (layer "F.Cu" (type "copper") (thickness 0.035))
      (layer "dielectric 1" (type "core") (thickness 1.51) (material "FR4") (epsilon_r 4.5) (loss_tangent 0.02))
      (layer "B.Cu" (type "copper") (thickness 0.035))
      (layer "B.Mask" (type "Bottom Solder Mask") (thickness 0.01))
      (layer "B.Paste" (type "Bottom Solder Paste"))
      (layer "B.SilkS" (type "Bottom Silk Screen"))
      (copper_finish "None")
      (dielectric_constraints no)
    )
    (pad_to_mask_clearance 0)
    (pcbplotparams
      (layerselection 0x00010fc_ffffffff)
      (disableapertmacros false)
      (usegerberextensions false)
      (usegerberattributes true)
      (usegerberadvancedattributes true)
      (creategerberjobfile true)
      (svguseinch false)
      (svgprecision 6)
      (excludeedgelayer true)
      (plotframeref false)
      (viasonmask false)
      (mode 1)
      (useauxorigin false)
      (hpglpennumber 1)
      (hpglpenspeed 20)
      (hpglpendiameter 15.000000)
      (dxfpolygonmode true)
      (dxfimperialunits true)
      (dxfusepcbnewfont true)
      (psnegative false)
      (psa4output false)
      (plotreference true)
      (plotvalue true)
      (plotinvisibletext false)
      (sketchpadsonfab false)
      (subtractmaskfromsilk false)
      (outputformat 1)
      (mirror false)
      (drillshape 1)
      (scaleselection 1)
      (outputdirectory "")
    )
  )

  (net 0 "")
  (net 1 "unconnected-(A1-Pad1)")
  (net 2 "unconnected-(A1-Pad2)")
  (net 3 "unconnected-(A1-Pad3)")
  (net 4 "GND")
  (net 5 "Net-(A1-Pad5)")
  (net 6 "Net-(A1-Pad6)")
  (net 7 "Net-(A1-Pad7)")
  (net 8 "Net-(A1-Pad8)")
  (net 9 "Net-(A1-Pad9)")
  (net 10 "Net-(A1-Pad10)")
  (net 11 "unconnected-(A1-Pad11)")
  (net 12 "unconnected-(A1-Pad12)")
  (net 13 "unconnected-(A1-Pad13)")
  (net 14 "unconnected-(A1-Pad14)")
  (net 15 "unconnected-(A1-Pad15)")
  (net 16 "unconnected-(A1-Pad16)")
  (net 17 "unconnected-(A1-Pad17)")
  (net 18 "unconnected-(A1-Pad18)")
  (net 19 "unconnected-(A1-Pad19)")
  (net 20 "Net-(R1-Pad2)")
  (net 21 "unconnected-(A1-Pad21)")
  (net 22 "unconnected-(A1-Pad22)")
  (net 23 "Net-(A1-Pad23)")
  (net 24 "Net-(A1-Pad24)")
  (net 25 "unconnected-(A1-Pad25)")
  (net 26 "unconnected-(A1-Pad26)")
  (net 27 "+5V")
  (net 28 "unconnected-(A1-Pad28)")
  (net 29 "unconnected-(A1-Pad30)")
  (net 30 "+24V")
  (net 31 "Net-(J2-Pad1)")

  (footprint "Eagle_WR-TBL Rising Cage Clamp (rev23a):691211720003" (layer "F.Cu")
    (tedit 0) (tstamp 11f188db-d179-4e75-a17b-bc89336cbbd0)
    (at 175.26 81.28 90)
    (descr "<b>WR-TBL Serie 211 - 5.00 mm 45° Entry Modular H=15.5mm \n<br></b>Max Height =15.5mm , Pitch 5mm , 3 Pins")
    (property "Sheetfile" "pressure_gauge.kicad_sch")
    (property "Sheetname" "")
    (path "/eb3a71d3-c2ea-46cd-b01e-4ee6c513c55e")
    (fp_text reference "J1" (at 0 -7 90) (layer "F.SilkS")
      (effects (font (size 1.1684 1.1684) (thickness 0.1016)) (justify bottom))
      (tstamp 8aa72df4-8e60-442e-8d90-5a1ba6f1cb92)
    )
    (fp_text value "Screw_Terminal_01x03" (at -3.5 9.5 90) (layer "F.Fab")
      (effects (font (size 1.1684 1.1684) (thickness 0.1016)) (justify left bottom))
      (tstamp 8a0e8665-5446-4362-a7d8-6488643db5d0)
    )
    (fp_line (start -7.6 -6.3) (end 7.6 -6.3) (layer "F.SilkS") (width 0.2) (tstamp 1f74d6c1-86ff-440b-8693-75fe344d4a5e))
    (fp_line (start -7.6 7.6) (end -7.6 -6.3) (layer "F.SilkS") (width 0.2) (tstamp 400a5d49-e167-4a7a-93d5-4ef650dd3daa))
    (fp_line (start 7.6 3.14) (end 8.2 3.02) (layer "F.SilkS") (width 0.2) (tstamp 541f21bd-856c-431c-aa7b-afeb2d44b28d))
    (fp_line (start 8.2 7.2) (end 7.6 7.08) (layer "F.SilkS") (width 0.2) (tstamp 5a58d231-6e81-4e4e-bbeb-3896a07a2b1b))
    (fp_line (start 7.6 -4.74) (end 8.2 -4.89) (layer "F.SilkS") (width 0.2) (tstamp 784a498e-8720-479e-b4ff-e39440875e27))
    (fp_line (start 7.6 7.6) (end -7.6 7.6) (layer "F.SilkS") (width 0.2) (tstamp 8d483233-be86-4199-a5f1-88798d850d49))
    (fp_line (start 7.6 -0.86) (end 7.6 3.14) (layer "F.SilkS") (width 0.2) (tstamp 95a5367b-7d3d-4bf0-b6ef-5d2644fc4ff6))
    (fp_line (start 8.2 3.02) (end 8.2 7.2) (layer "F.SilkS") (width 0.2) (tstamp 9df0603b-9d5a-4b17-a409-e6779b83efe7))
    (fp_line (start 8.2 -4.89) (end 8.2 -0.71) (layer "F.SilkS") (width 0.2) (tstamp a3f47e57-6847-47d1-8d49-6ed8699ea177))
    (fp_line (start 7.6 7.08) (end 7.6 7.6) (layer "F.SilkS") (width 0.2) (tstamp deafc3e1-5746-4459-a9dd-f0c1c8ca3a70))
    (fp_line (start 7.6 -6.3) (end 7.6 -4.74) (layer "F.SilkS") (width 0.2) (tstamp e27f94c4-d7c3-4c89-abb1-e0275f80ef3f))
    (fp_line (start 8.2 -0.71) (end 7.6 -0.86) (layer "F.SilkS") (width 0.2) (tstamp f56bc736-52bd-4a13-b8f4-9baa152aeec4))
    (fp_circle (center -6.2 -2) (end -6.1 -2) (layer "F.SilkS") (width 0.4) (fill none) (tstamp 911d2751-043c-42e3-8761-85d4cc3e5737))
    (fp_poly (pts
        (xy 8.45 7.85)
        (xy -7.85 7.85)
        (xy -7.85 -6.55)
        (xy 8.45 -6.55)
      ) (layer "F.CrtYd") (width 0) (fill solid) (tstamp 5ffdd53c-de33-4239-bc53-d270d628b7cc))
    (fp_line (start -7.5 -6.2) (end -7.5 7.5) (layer "F.Fab") (width 0.1) (tstamp 3cd970ed-c719-49fd-8af2-b0aeb0855d3d))
    (fp_line (start 7.5 6.98) (end 8.1 7.1) (layer "F.Fab") (width 0.1) (tstamp 6538622a-91ce-4dec-b3a0-e3bbdd1c98bd))
    (fp_line (start 8.1 -0.81) (end 8.1 -4.79) (layer "F.Fab") (width 0.1) (tstamp 6b173e7e-44aa-4e97-9d19-92159b537f5c))
    (fp_line (start 7.5 -0.96) (end 8.1 -0.81) (layer "F.Fab") (width 0.1) (tstamp 8ca79801-47c4-4d42-9227-e2406086f5f2))
    (fp_line (start 7.5 -4.64) (end 8.1 -4.79) (layer "F.Fab") (width 0.1) (tstamp a3fc9834-27d4-40cd-8883-ffe95b328ea5))
    (fp_line (start 8.1 7.1) (end 8.1 3.12) (layer "F.Fab") (width 0.1) (tstamp bcfa7342-f33d-44fd-accb-54c90fcd4890))
    (fp_line (start 7.5 6.98) (end 7.5 7.5) (layer "F.Fab") (width 0.1) (tstamp bfb7b2e7-cd6e-4e2b-934f-53a312b0a664))
    (fp_line (start 7.5 -6.2) (end -7.5 -6.2) (layer "F.Fab") (width 0.1) (tstamp c0f24f8d-acbb-4e03-9088-4d32c5da7f55))
    (fp_line (start 7.5 3.24) (end 8.1 3.12) (layer "F.Fab") (width 0.1) (tstamp e2266617-43b4-4c28-af90-5a046b701184))
    (fp_line (start 7.5 -0.96) (end 7.5 3.24) (layer "F.Fab") (width 0.1) (tstamp e705d22c-5fda-4e5a-85db-048d5fda3766))
    (fp_line (start 7.5 -6.2) (end 7.5 -4.64) (layer "F.Fab") (width 0.1) (tstamp e8debeef-1c5a-4cbb-abe3-c4109c2d4c64))
    (fp_line (start -7.5 7.5) (end 7.5 7.5) (layer "F.Fab") (width 0.1) (tstamp e9111079-1270-49f9-9348-75438b29d4f8))
    (pad "1" thru_hole circle (at -5 0 90) (size 2.25 2.25) (drill 1.5) (layers *.Cu *.Mask)
      (net 30 "+24V") (pinfunction "Pin_1") (pintype "passive") (solder_mask_margin 0.1016) (tstamp e68b1cca-71b6-4818-9578-c7ca1fbdc592))
    (pad "2" thru_hole circle (at 0 0 90) (size 2.25 2.25) (drill 1.5) (layers *.Cu *.Mask)
      (net 4 "GND") (pinfunction "Pin_2") (pintype "passive") (solder_mask_margin 0.1016) (tstamp ebcf9a35-1c42-4e2a-95d0-fd09c8728d53))
    (pad "3" thru_hole circle (at 5 0 90) (size 2.25 2.25) (drill 1.5) (layers *.Cu *.Mask)
      (net 27 "+5V") (pinfunction "Pin_3") (pintype "passive") (solder_mask_margin 0.1016) (tstamp caebff3a-08ba-4a90-9afb-7ebd8df55a51))
  )

  (footprint "Resistor_THT:R_Axial_DIN0207_L6.3mm_D2.5mm_P10.16mm_Horizontal" (layer "F.Cu")
    (tedit 5AE5139B) (tstamp 52690030-ad9d-4844-b714-716ecb9b94b0)
    (at 157.48 88.9 180)
    (descr "Resistor, Axial_DIN0207 series, Axial, Horizontal, pin pitch=10.16mm, 0.25W = 1/4W, length*diameter=6.3*2.5mm^2, http://cdn-reichelt.de/documents/datenblatt/B400/1_4W%23YAG.pdf")
    (tags "Resistor Axial_DIN0207 series Axial Horizontal pin pitch 10.16mm 0.25W = 1/4W length 6.3mm diameter 2.5mm")
    (property "Sheetfile" "pressure_gauge.kicad_sch")
    (property "Sheetname" "")
    (path "/be4a8821-e614-4113-beb7-613ab1486e65")
    (attr through_hole)
    (fp_text reference "R1" (at 5.08 -2.37) (layer "F.SilkS")
      (effects (font (size 1 1) (thickness 0.15)))
      (tstamp bf2b9ab8-f824-4770-b112-b35801baa476)
    )
    (fp_text value "4.7k" (at 5.08 2.37) (layer "F.Fab")
      (effects (font (size 1 1) (thickness 0.15)))
      (tstamp 76b8e326-1645-4a78-a58e-6c6966735c03)
    )
    (fp_text user "${REFERENCE}" (at 5.08 0) (layer "F.Fab")
      (effects (font (size 1 1) (thickness 0.15)))
      (tstamp 04d3c1a8-ad2c-4bbc-8257-a7929a9f58e2)
    )
    (fp_line (start 1.04 0) (end 1.81 0) (layer "F.SilkS") (width 0.12) (tstamp 1bf3143d-6830-4d44-9749-091b2355c307))
    (fp_line (start 9.12 0) (end 8.35 0) (layer "F.SilkS") (width 0.12) (tstamp 3cce91d1-1009-4dc9-a936-2933b75750f7))
    (fp_line (start 8.35 1.37) (end 8.35 -1.37) (layer "F.SilkS") (width 0.12) (tstamp 4763d50b-6fdd-4b45-9934-e6ff4a473ca9))
    (fp_line (start 8.35 -1.37) (end 1.81 -1.37) (layer "F.SilkS") (width 0.12) (tstamp 64900667-3e3a-4ed6-8d87-bf14b4df1283))
    (fp_line (start 1.81 1.37) (end 8.35 1.37) (layer "F.SilkS") (width 0.12) (tstamp 7b1cbfaa-d929-4c9d-804d-d78361ae040c))
    (fp_line (start 1.81 -1.37) (end 1.81 1.37) (layer "F.SilkS") (width 0.12) (tstamp 85af015e-5965-485b-91cc-a771457cc39a))
    (fp_line (start 11.21 -1.5) (end -1.05 -1.5) (layer "F.CrtYd") (width 0.05) (tstamp 0a9f8453-fbd2-4254-97c4-482ad9f9ed72))
    (fp_line (start 11.21 1.5) (end 11.21 -1.5) (layer "F.CrtYd") (width 0.05) (tstamp 7f25fe06-0251-4cb6-8369-1492b7595df6))
    (fp_line (start -1.05 1.5) (end 11.21 1.5) (layer "F.CrtYd") (width 0.05) (tstamp a0231270-9096-4e82-bed8-15d35cfe1aac))
    (fp_line (start -1.05 -1.5) (end -1.05 1.5) (layer "F.CrtYd") (width 0.05) (tstamp e2702550-5ff8-4696-8a41-919521588540))
    (fp_line (start 10.16 0) (end 8.23 0) (layer "F.Fab") (width 0.1) (tstamp 5617291b-3bab-4753-a417-bb688f57b70d))
    (fp_line (start 8.23 1.25) (end 8.23 -1.25) (layer "F.Fab") (width 0.1) (tstamp 6b4dcdbf-3dde-46f3-9669-7e7213e581ac))
    (fp_line (start 1.93 1.25) (end 8.23 1.25) (layer "F.Fab") (width 0.1) (tstamp a6ab8e4b-c46a-4d55-907c-98be1bf313c4))
    (fp_line (start 1.93 -1.25) (end 1.93 1.25) (layer "F.Fab") (width 0.1) (tstamp c13dfa85-d81d-4b1f-bdbd-44b24a29e8d0))
    (fp_line (start 8.23 -1.25) (end 1.93 -1.25) (layer "F.Fab") (width 0.1) (tstamp cdc1b9c6-bda8-4d94-8713-7051bdb81f9a))
    (fp_line (start 0 0) (end 1.93 0) (layer "F.Fab") (width 0.1) (tstamp d439f827-77e6-4096-94bc-540f4cf48126))
    (pad "1" thru_hole circle (at 0 0 180) (size 1.6 1.6) (drill 0.8) (layers *.Cu *.Mask)
      (net 31 "Net-(J2-Pad1)") (pintype "passive") (tstamp 8dd4f606-82be-4b27-95d7-bdfaffe430af))
    (pad "2" thru_hole oval (at 10.16 0 180) (size 1.6 1.6) (drill 0.8) (layers *.Cu *.Mask)
      (net 20 "Net-(R1-Pad2)") (pintype "passive") (tstamp fbc9d6af-9720-4998-9b47-5dede4af4e71))
    (model "${KICAD6_3DMODEL_DIR}/Resistor_THT.3dshapes/R_Axial_DIN0207_L6.3mm_D2.5mm_P10.16mm_Horizontal.wrl"
      (offset (xyz 0 0 0))
      (scale (xyz 1 1 1))
      (rotate (xyz 0 0 0))
    )
  )

  (footprint "Module:Arduino_Nano" (layer "F.Cu")
    (tedit 58ACAF70) (tstamp 55a37280-95f0-4a32-9b38-1ccf7ba0edcf)
    (at 124.46 60.96)
    (descr "Arduino Nano, http://www.mouser.com/pdfdocs/Gravitech_Arduino_Nano3_0.pdf")
    (tags "Arduino Nano")
    (property "Sheetfile" "pressure_gauge.kicad_sch")
    (property "Sheetname" "")
    (path "/5f3662f1-db14-4306-87d7-81701cc75337")
    (attr through_hole)
    (fp_text reference "A1" (at 7.62 -5.08) (layer "F.SilkS")
      (effects (font (size 1 1) (thickness 0.15)))
      (tstamp e5080491-7ea1-44a2-a7fb-e253697d61fa)
    )
    (fp_text value "Arduino_Nano_Every" (at 8.89 19.05 90) (layer "F.Fab")
      (effects (font (size 1 1) (thickness 0.15)))
      (tstamp e6360f19-07b0-4f90-be79-7ec0b603aa23)
    )
    (fp_text user "USB" (at 7.62 35.56 unlocked) (layer "F.SilkS")
      (effects (font (size 1 1) (thickness 0.15)))
      (tstamp ca63d4d0-592d-4167-ab4f-86bfc3f928bb)
    )
    (fp_text user "${REFERENCE}" (at 6.35 19.05 90) (layer "F.Fab")
      (effects (font (size 1 1) (thickness 0.15)))
      (tstamp 957dda4b-5d55-4d78-a16f-a79bcfe97846)
    )
    (fp_line (start 1.27 1.27) (end -1.4 1.27) (layer "F.SilkS") (width 0.12) (tstamp 15e7aad2-6b5f-414a-bf74-0e1ef2b495fc))
    (fp_line (start 1.27 36.83) (end -1.4 36.83) (layer "F.SilkS") (width 0.12) (tstamp 20cde247-51ce-4c6b-84e0-a89ab393a6dd))
    (fp_line (start -1.4 39.5) (end 3.68 39.5) (layer "F.SilkS") (width 0.12) (tstamp 22cb4d7d-7d96-4fa7-943e-b23085d81433))
    (fp_line (start 16.64 39.5) (end 16.64 -3.94) (layer "F.SilkS") (width 0.12) (tstamp 4982efcf-cfb9-487b-8142-c0e66cf32538))
    (fp_line (start 16.64 -3.94) (end -1.4 -3.94) (layer "F.SilkS") (width 0.12) (tstamp 70fe6b36-b198-4622-a921-159591a70449))
    (fp_line (start 1.27 -1.27) (end -1.4 -1.27) (layer "F.SilkS") (width 0.12) (tstamp 79106804-59b0-4945-b0a9-dbebb7cfddc7))
    (fp_line (start 1.27 1.27) (end 1.27 36.83) (layer "F.SilkS") (width 0.12) (tstamp 7a009da5-3e61-4c4e-9e5f-3d5c12c0645b))
    (fp_line (start 13.97 -1.27) (end 16.64 -1.27) (layer "F.SilkS") (width 0.12) (tstamp 84c8ae3d-8d8e-4080-8c6a-c3bffb167f8f))
    (fp_line (start 13.97 -1.27) (end 13.97 36.83) (layer "F.SilkS") (width 0.12) (tstamp 87cb7ec3-e23f-4b6c-917c-4a7f196eac9e))
    (fp_line (start 1.27 1.27) (end 1.27 -1.27) (layer "F.SilkS") (width 0.12) (tstamp 96d7272b-ad2d-4565-a7c1-129f710d308d))
    (fp_line (start 11.56 42.04) (end 3.68 42.04) (layer "F.SilkS") (width 0.12) (tstamp adf4958f-e2a2-4e0f-9c65-f08394fb0d43))
    (fp_line (start 3.68 31.62) (end 11.56 31.62) (layer "F.SilkS") (width 0.12) (tstamp c595ad46-b30f-47b2-a4ca-9dab42d55e46))
    (fp_line (start 13.97 36.83) (end 16.64 36.83) (layer "F.SilkS") (width 0.12) (tstamp c6c423e3-521a-488a-9900-6ff6022b0471))
    (fp_line (start -1.4 -3.94) (end -1.4 -1.27) (layer "F.SilkS") (width 0.12) (tstamp cd3d4790-2f35-4785-9627-fb4b17a3ce7e))
    (fp_line (start 3.68 42.04) (end 3.68 31.62) (layer "F.SilkS") (width 0.12) (tstamp ce6b11e0-30c8-43b3-b29e-20b2fb25cbba))
    (fp_line (start 11.56 31.62) (end 11.56 42.04) (layer "F.SilkS") (width 0.12) (tstamp cea66c10-6e48-4f88-8455-3358c23837f2))
    (fp_line (start -1.4 1.27) (end -1.4 39.5) (layer "F.SilkS") (width 0.12) (tstamp d8e1f019-5ecc-4fd2-9d82-914b4e4607ed))
    (fp_line (start 16.64 39.5) (end 11.56 39.5) (layer "F.SilkS") (width 0.12) (tstamp e6358762-9b3b-4caf-9cb8-63893cdbb471))
    (fp_line (start -1.53 -4.06) (end -1.53 42.16) (layer "F.CrtYd") (width 0.05) (tstamp 0774abbf-b94d-4cd5-91f2-e68bad0a3c4f))
    (fp_line (start 16.75 42.16) (end -1.53 42.16) (layer "F.CrtYd") (width 0.05) (tstamp 285a7ab1-b699-4fa5-b2b0-d67717772d86))
    (fp_line (start 16.75 42.16) (end 16.75 -4.06) (layer "F.CrtYd") (width 0.05) (tstamp 6980c576-0e24-48cd-b9f5-2171b8c21d09))
    (fp_line (start -1.53 -4.06) (end 16.75 -4.06) (layer "F.CrtYd") (width 0.05) (tstamp 9600c463-f89d-4201-a0d0-690cd7b3baff))
    (fp_line (start -1.27 39.37) (end -1.27 -2.54) (layer "F.Fab") (width 0.1) (tstamp 0973548f-82be-4ce5-be83-7c7bf0a06a24))
    (fp_line (start -1.27 -2.54) (end 0 -3.81) (layer "F.Fab") (width 0.1) (tstamp 185da350-7698-457f-835e-4a00de3855c8))
    (fp_line (start 16.51 39.37) (end -1.27 39.37) (layer "F.Fab") (width 0.1) (tstamp 203aff82-003c-4354-8cf6-33c7d8182140))
    (fp_line (start 11.43 31.75) (end 11.43 41.91) (layer "F.Fab") (width 0.1) (tstamp 2f44319a-3248-4b2c-bd48-9750ba0ab6f3))
    (fp_line (start 11.43 41.91) (end 3.81 41.91) (layer "F.Fab") (width 0.1) (tstamp 3e23ec31-a514-4a38-a9ca-c104a69a2378))
    (fp_line (start 3.81 31.75) (end 11.43 31.75) (layer "F.Fab") (width 0.1) (tstamp 4889f0b1-a8a1-459a-bf9d-39715ccd9a48))
    (fp_line (start 0 -3.81) (end 16.51 -3.81) (layer "F.Fab") (width 0.1) (tstamp 585c4893-29e3-472f-9dc5-5e80d1b03fa1))
    (fp_line (start 3.81 41.91) (end 3.81 31.75) (layer "F.Fab") (width 0.1) (tstamp 6c39cbae-0855-4c7d-9c47-e70a7283c1ce))
    (fp_line (start 16.51 -3.81) (end 16.51 39.37) (layer "F.Fab") (width 0.1) (tstamp 9e3b8f8e-1552-4110-9ce3-4964bb9253aa))
    (pad "1" thru_hole rect (at 0 0) (size 1.6 1.6) (drill 1) (layers *.Cu *.Mask)
      (net 1 "unconnected-(A1-Pad1)") (pinfunction "TX1") (pintype "bidirectional") (tstamp 2e99c887-ef52-4caa-9658-dc2ecb1acf7e))
    (pad "2" thru_hole oval (at 0 2.54) (size 1.6 1.6) (drill 1) (layers *.Cu *.Mask)
      (net 2 "unconnected-(A1-Pad2)") (pinfunction "RX1") (pintype "bidirectional") (tstamp 0802bfed-cc28-4b26-923a-a8283b03245f))
    (pad "3" thru_hole oval (at 0 5.08) (size 1.6 1.6) (drill 1) (layers *.Cu *.Mask)
      (net 3 "unconnected-(A1-Pad3)") (pinfunction "~{RESET}") (pintype "input") (tstamp 12009378-15e7-48a2-9ccc-8a94407c2122))
    (pad "4" thru_hole oval (at 0 7.62) (size 1.6 1.6) (drill 1) (layers *.Cu *.Mask)
      (net 4 "GND") (pinfunction "GND") (pintype "power_in") (tstamp ded0dd52-9a85-499e-a948-826473b9dbf3))
    (pad "5" thru_hole oval (at 0 10.16) (size 1.6 1.6) (drill 1) (layers *.Cu *.Mask)
      (net 5 "Net-(A1-Pad5)") (pinfunction "D2") (pintype "bidirectional") (tstamp c93460c4-bf61-4fa1-ab06-b48894a2def4))
    (pad "6" thru_hole oval (at 0 12.7) (size 1.6 1.6) (drill 1) (layers *.Cu *.Mask)
      (net 6 "Net-(A1-Pad6)") (pinfunction "D3") (pintype "bidirectional") (tstamp fe14dd67-17bf-4c2d-a0f3-4960568272a7))
    (pad "7" thru_hole oval (at 0 15.24) (size 1.6 1.6) (drill 1) (layers *.Cu *.Mask)
      (net 7 "Net-(A1-Pad7)") (pinfunction "D4") (pintype "bidirectional") (tstamp ff5bfd57-afea-45db-b70e-099e5b8e114e))
    (pad "8" thru_hole oval (at 0 17.78) (size 1.6 1.6) (drill 1) (layers *.Cu *.Mask)
      (net 8 "Net-(A1-Pad8)") (pinfunction "D5") (pintype "bidirectional") (tstamp 94e501ad-7ae8-432d-8583-27bbe515e9d6))
    (pad "9" thru_hole oval (at 0 20.32) (size 1.6 1.6) (drill 1) (layers *.Cu *.Mask)
      (net 9 "Net-(A1-Pad9)") (pinfunction "D6") (pintype "bidirectional") (tstamp ceb0297e-17bb-4f33-b619-8aebb197c5bf))
    (pad "10" thru_hole oval (at 0 22.86) (size 1.6 1.6) (drill 1) (layers *.Cu *.Mask)
      (net 10 "Net-(A1-Pad10)") (pinfunction "D7") (pintype "bidirectional") (tstamp ef37d346-d32b-441c-8b1d-e444eea3ab7f))
    (pad "11" thru_hole oval (at 0 25.4) (size 1.6 1.6) (drill 1) (layers *.Cu *.Mask)
      (net 11 "unconnected-(A1-Pad11)") (pinfunction "D8") (pintype "bidirectional") (tstamp 2e87fd5c-037c-46aa-aad1-8ac57b2e1bba))
    (pad "12" thru_hole oval (at 0 27.94) (size 1.6 1.6) (drill 1) (layers *.Cu *.Mask)
      (net 12 "unconnected-(A1-Pad12)") (pinfunction "D9") (pintype "bidirectional") (tstamp 3036df63-19da-4203-97e8-2781f6538fe9))
    (pad "13" thru_hole oval (at 0 30.48) (size 1.6 1.6) (drill 1) (layers *.Cu *.Mask)
      (net 13 "unconnected-(A1-Pad13)") (pinfunction "D10") (pintype "bidirectional") (tstamp 1ebf1a48-e734-43d7-99f3-8ad62fa925f6))
    (pad "14" thru_hole oval (at 0 33.02) (size 1.6 1.6) (drill 1) (layers *.Cu *.Mask)
      (net 14 "unconnected-(A1-Pad14)") (pinfunction "MOSI") (pintype "bidirectional") (tstamp db3c2306-1a09-48ae-bf98-b7ce3534df68))
    (pad "15" thru_hole oval (at 0 35.56) (size 1.6 1.6) (drill 1) (layers *.Cu *.Mask)
      (net 15 "unconnected-(A1-Pad15)") (pinfunction "MISO") (pintype "bidirectional") (tstamp 341f52a3-90f4-4d1a-b1c4-9fc21c517688))
    (pad "16" thru_hole oval (at 15.24 35.56) (size 1.6 1.6) (drill 1) (layers *.Cu *.Mask)
      (net 16 "unconnected-(A1-Pad16)") (pinfunction "SCK") (pintype "bidirectional") (tstamp ad90df9e-fe00-4f25-a6f5-9a9147b41ab6))
    (pad "17" thru_hole oval (at 15.24 33.02) (size 1.6 1.6) (drill 1) (layers *.Cu *.Mask)
      (net 17 "unconnected-(A1-Pad17)") (pinfunction "3V3") (pintype "power_out") (tstamp 046dcd86-4c2b-4b96-8286-0fac71cd176d))
    (pad "18" thru_hole oval (at 15.24 30.48) (size 1.6 1.6) (drill 1) (layers *.Cu *.Mask)
      (net 18 "unconnected-(A1-Pad18)") (pinfunction "AREF") (pintype "input") (tstamp c82dec8b-9ede-4159-b3a8-becb3cbe2ebb))
    (pad "19" thru_hole oval (at 15.24 27.94) (size 1.6 1.6) (drill 1) (layers *.Cu *.Mask)
      (net 19 "unconnected-(A1-Pad19)") (pinfunction "A0") (pintype "bidirectional") (tstamp 1a1b0195-541a-44a0-ac06-fb0e0b686283))
    (pad "20" thru_hole oval (at 15.24 25.4) (size 1.6 1.6) (drill 1) (layers *.Cu *.Mask)
      (net 20 "Net-(R1-Pad2)") (pinfunction "A1") (pintype "bidirectional") (tstamp 02f98624-6731-4b7c-a20a-7288f5a1e489))
    (pad "21" thru_hole oval (at 15.24 22.86) (size 1.6 1.6) (drill 1) (layers *.Cu *.Mask)
      (net 21 "unconnected-(A1-Pad21)") (pinfunction "A2") (pintype "bidirectional") (tstamp 7abee434-7692-4890-a5a5-c9b4490948c6))
    (pad "22" thru_hole oval (at 15.24 20.32) (size 1.6 1.6) (drill 1) (layers *.Cu *.Mask)
      (net 22 "unconnected-(A1-Pad22)") (pinfunction "A3") (pintype "bidirectional") (tstamp d7b7dc3e-4a21-43ed-81aa-0c82f39888d2))
    (pad "23" thru_hole oval (at 15.24 17.78) (size 1.6 1.6) (drill 1) (layers *.Cu *.Mask)
      (net 23 "Net-(A1-Pad23)") (pinfunction "SDA/A4") (pintype "bidirectional") (tstamp 99c4ef91-3e79-42f7-b8a9-0574813fd3fa))
    (pad "24" thru_hole oval (at 15.24 15.24) (size 1.6 1.6) (drill 1) (layers *.Cu *.Mask)
      (net 24 "Net-(A1-Pad24)") (pinfunction "SCL/A5") (pintype "bidirectional") (tstamp e63373b1-a1b8-4fd8-9a87-f0d148739339))
    (pad "25" thru_hole oval (at 15.24 12.7) (size 1.6 1.6) (drill 1) (layers *.Cu *.Mask)
      (net 25 "unconnected-(A1-Pad25)") (pinfunction "A6") (pintype "bidirectional") (tstamp 3a10eeae-eaf1-4b63-8668-b984e86ebfa7))
    (pad "26" thru_hole oval (at 15.24 10.16) (size 1.6 1.6) (drill 1) (layers *.Cu *.Mask)
      (net 26 "unconnected-(A1-Pad26)") (pinfunction "A7") (pintype "bidirectional") (tstamp 491c1e77-c12d-4351-a615-e3da4943587f))
    (pad "27" thru_hole oval (at 15.24 7.62) (size 1.6 1.6) (drill 1) (layers *.Cu *.Mask)
      (net 27 "+5V") (pinfunction "+5V") (pintype "power_out") (tstamp 305c57b5-cf8f-45fc-a362-cc6604995781))
    (pad "28" thru_hole oval (at 15.24 5.08) (size 1.6 1.6) (drill 1) (layers *.Cu *.Mask)
      (net 28 "unconnected-(A1-Pad28)") (pinfunction "~{RESET}") (pintype "input") (tstamp af35e939-8068-4c41-98ce-8d08f396f110))
    (pad "29" thru_hole oval (at 15.24 2.54) (size 1.6 1.6) (drill 1) (layers *.Cu *.Mask)
      (net 4 "GND") (pinfunction "GND") (pintype "passive") (tstamp e6296980-cea6-460c-89a4-cf15f74c534c))
    (pad "30" thru_hole oval (at 15.24 0) (size 1.6 1.6) (drill 1) (layers *.Cu *.Mask)
      (net 29 "unconnected-(A1-Pad30)") (pinfunction "VIN") (pintype "power_in") (tstamp 803b6cb3-36c1-40dc-9034-8ab9998a0aca))
    (model "${KICAD6_3DMODEL_DIR}/Module.3dshapes/Arduino_Nano_WithMountingHoles.wrl"
      (offset (xyz 0 0 0))
      (scale (xyz 1 1 1))
      (rotate (xyz 0 0 0))
    )
  )

  (footprint "Diode_THT:D_A-405_P7.62mm_Horizontal" (layer "F.Cu")
    (tedit 5AE50CD5) (tstamp 6dc4e625-b979-4fd9-b38d-a4c2d54b70c8)
    (at 147.32 71.24 -90)
    (descr "Diode, A-405 series, Axial, Horizontal, pin pitch=7.62mm, , length*diameter=5.2*2.7mm^2, , http://www.diodes.com/_files/packages/A-405.pdf")
    (tags "Diode A-405 series Axial Horizontal pin pitch 7.62mm  length 5.2mm diameter 2.7mm")
    (property "Sheetfile" "pressure_gauge.kicad_sch")
    (property "Sheetname" "")
    (path "/eba11204-515d-4731-bf7a-f0656ccfa84f")
    (attr through_hole)
    (fp_text reference "D1" (at 3.81 -2.47 90) (layer "F.SilkS")
      (effects (font (size 1 1) (thickness 0.15)))
      (tstamp a4ba8f9c-ff69-454d-8625-de2697e7e514)
    )
    (fp_text value "D_Schottky" (at 3.81 2.47 90) (layer "F.Fab")
      (effects (font (size 1 1) (thickness 0.15)))
      (tstamp 1e3d7e4d-78ea-48a6-806b-776232404f15)
    )
    (fp_text user "K" (at 0 -1.9 90) (layer "F.SilkS")
      (effects (font (size 1 1) (thickness 0.15)))
      (tstamp 1f7b8561-161f-4898-a425-4a495f6aa557)
    )
    (fp_text user "${REFERENCE}" (at 4.2 0 90) (layer "F.Fab")
      (effects (font (size 1 1) (thickness 0.15)))
      (tstamp aa609560-8c3b-434b-afea-0320c97a8745)
    )
    (fp_text user "K" (at 0 -1.9 90) (layer "F.Fab")
      (effects (font (size 1 1) (thickness 0.15)))
      (tstamp b90ef4ef-5337-44ff-b604-12b428b7fb4b)
    )
    (fp_line (start 2.11 -1.47) (end 2.11 1.47) (layer "F.SilkS") (width 0.12) (tstamp 2ee4ee70-b3f7-4404-ab89-dcd5b3ffd507))
    (fp_line (start 1.09 -1.47) (end 6.53 -1.47) (layer "F.SilkS") (width 0.12) (tstamp 332021fe-a9f1-48ad-8d24-3e32907a3250))
    (fp_line (start 6.53 1.47) (end 6.53 1.14) (layer "F.SilkS") (width 0.12) (tstamp 6eb804bf-bbf9-4761-b2a1-b83441dbbb38))
    (fp_line (start 1.99 -1.47) (end 1.99 1.47) (layer "F.SilkS") (width 0.12) (tstamp 86f8dc8e-5ff8-4929-a7c9-0381e5b93b82))
    (fp_line (start 1.09 -1.14) (end 1.09 -1.47) (layer "F.SilkS") (width 0.12) (tstamp 9626b04e-cf31-4e02-aa07-64f4c920dfc3))
    (fp_line (start 6.53 -1.47) (end 6.53 -1.14) (layer "F.SilkS") (width 0.12) (tstamp aeb4b9f6-fc74-4bf5-b7aa-b7b3b1939f7a))
    (fp_line (start 1.09 1.14) (end 1.09 1.47) (layer "F.SilkS") (width 0.12) (tstamp dd1c33a1-0a71-46fd-98a6-0a3fbfdfb111))
    (fp_line (start 1.87 -1.47) (end 1.87 1.47) (layer "F.SilkS") (width 0.12) (tstamp ebae7752-ca5f-470e-8833-4aaedee11513))
    (fp_line (start 1.09 1.47) (end 6.53 1.47) (layer "F.SilkS") (width 0.12) (tstamp f269d85a-e5ee-4a33-ba0d-4337fe835dcb))
    (fp_line (start -1.15 -1.6) (end -1.15 1.6) (layer "F.CrtYd") (width 0.05) (tstamp 2aaf9b0d-b986-407e-b02c-7be1d9edb197))
    (fp_line (start -1.15 1.6) (end 8.77 1.6) (layer "F.CrtYd") (width 0.05) (tstamp 588baac3-4814-48e1-a4d7-7da6a93e7072))
    (fp_line (start 8.77 -1.6) (end -1.15 -1.6) (layer "F.CrtYd") (width 0.05) (tstamp 8de93860-326d-4aa8-b0c1-85e1d4830f88))
    (fp_line (start 8.77 1.6) (end 8.77 -1.6) (layer "F.CrtYd") (width 0.05) (tstamp b190ff40-4c97-4e0c-9deb-f9e674c4da52))
    (fp_line (start 1.21 1.35) (end 6.41 1.35) (layer "F.Fab") (width 0.1) (tstamp 21512ce6-1fe9-48b3-a31f-4c23f2295bd6))
    (fp_line (start 7.62 0) (end 6.41 0) (layer "F.Fab") (width 0.1) (tstamp 317d4bf3-4bc4-4adb-b055-21753811666e))
    (fp_line (start 1.99 -1.35) (end 1.99 1.35) (layer "F.Fab") (width 0.1) (tstamp 361bc382-71ed-4c65-9a25-75e1af637c5b))
    (fp_line (start 6.41 -1.35) (end 1.21 -1.35) (layer "F.Fab") (width 0.1) (tstamp 5003de28-b26a-4cf0-b80b-5cb15d71ce1d))
    (fp_line (start 2.09 -1.35) (end 2.09 1.35) (layer "F.Fab") (width 0.1) (tstamp 67e64742-f80f-48b0-a94e-067562c708aa))
    (fp_line (start 1.21 -1.35) (end 1.21 1.35) (layer "F.Fab") (width 0.1) (tstamp b05f9a56-a2d4-4a19-8ef2-7e23112b5f6b))
    (fp_line (start 6.41 1.35) (end 6.41 -1.35) (layer "F.Fab") (width 0.1) (tstamp b1d1a747-25fe-45b4-8e77-7b491c589629))
    (fp_line (start 1.89 -1.35) (end 1.89 1.35) (layer "F.Fab") (width 0.1) (tstamp cecdfd7a-ad2e-4186-b40d-51ed6e38ebd5))
    (fp_line (start 0 0) (end 1.21 0) (layer "F.Fab") (width 0.1) (tstamp d42fa678-ccf0-446d-ba6b-0d25b43a1af0))
    (pad "1" thru_hole rect (at 0 0 270) (size 1.8 1.8) (drill 0.9) (layers *.Cu *.Mask)
      (net 27 "+5V") (pinfunction "K") (pintype "passive") (tstamp 80ee8fef-f11e-4a74-a20a-3d6335812028))
    (pad "2" thru_hole oval (at 7.62 0 270) (size 1.8 1.8) (drill 0.9) (layers *.Cu *.Mask)
      (net 20 "Net-(R1-Pad2)") (pinfunction "A") (pintype "passive") (tstamp dccc9145-1ce9-4666-af58-5736b69b93f4))
    (model "${KICAD6_3DMODEL_DIR}/Diode_THT.3dshapes/D_A-405_P7.62mm_Horizontal.wrl"
      (offset (xyz 0 0 0))
      (scale (xyz 1 1 1))
      (rotate (xyz 0 0 0))
    )
  )

  (footprint "Resistor_THT:R_Axial_DIN0207_L6.3mm_D2.5mm_P10.16mm_Horizontal" (layer "F.Cu")
    (tedit 5AE5139B) (tstamp 6efd9ec1-9fec-48cf-aeea-2f0a22630a55)
    (at 147.32 86.36)
    (descr "Resistor, Axial_DIN0207 series, Axial, Horizontal, pin pitch=10.16mm, 0.25W = 1/4W, length*diameter=6.3*2.5mm^2, http://cdn-reichelt.de/documents/datenblatt/B400/1_4W%23YAG.pdf")
    (tags "Resistor Axial_DIN0207 series Axial Horizontal pin pitch 10.16mm 0.25W = 1/4W length 6.3mm diameter 2.5mm")
    (property "Sheetfile" "pressure_gauge.kicad_sch")
    (property "Sheetname" "")
    (path "/4d804d1e-7929-4e32-974f-1d5592b2a036")
    (attr through_hole)
    (fp_text reference "R2" (at 5.08 -2.37) (layer "F.SilkS")
      (effects (font (size 1 1) (thickness 0.15)))
      (tstamp 23ad01d8-c054-4c76-87e9-f6141a6a1058)
    )
    (fp_text value "4.7k" (at 5.08 2.37) (layer "F.Fab")
      (effects (font (size 1 1) (thickness 0.15)))
      (tstamp b7f79d58-6be2-4a8e-b0ee-3b35e2e4cad9)
    )
    (fp_text user "${REFERENCE}" (at 5.08 0) (layer "F.Fab")
      (effects (font (size 1 1) (thickness 0.15)))
      (tstamp b409f8d4-310e-464e-b334-75d468afb88c)
    )
    (fp_line (start 1.04 0) (end 1.81 0) (layer "F.SilkS") (width 0.12) (tstamp 12aec419-ace8-4a5f-ab43-0e3af596f0e9))
    (fp_line (start 1.81 1.37) (end 8.35 1.37) (layer "F.SilkS") (width 0.12) (tstamp 7aba3a6e-df1f-4d4a-82af-184fc3a7b1fd))
    (fp_line (start 1.81 -1.37) (end 1.81 1.37) (layer "F.SilkS") (width 0.12) (tstamp 842c1554-03c1-48e8-afd7-ef046b26b014))
    (fp_line (start 9.12 0) (end 8.35 0) (layer "F.SilkS") (width 0.12) (tstamp 9e700c63-f8d0-4b74-838b-8944b8fc3e13))
    (fp_line (start 8.35 1.37) (end 8.35 -1.37) (layer "F.SilkS") (width 0.12) (tstamp bb977d3f-8239-442a-a625-7e0f9053855c))
    (fp_line (start 8.35 -1.37) (end 1.81 -1.37) (layer "F.SilkS") (width 0.12) (tstamp bd0f8e34-d0ba-4c45-942a-fb5f72e6ca32))
    (fp_line (start -1.05 1.5) (end 11.21 1.5) (layer "F.CrtYd") (width 0.05) (tstamp 678e4552-7a59-4c9c-a17d-6768377df5c2))
    (fp_line (start -1.05 -1.5) (end -1.05 1.5) (layer "F.CrtYd") (width 0.05) (tstamp 968e0a73-fd06-469f-b883-4cc18d40c25b))
    (fp_line (start 11.21 -1.5) (end -1.05 -1.5) (layer "F.CrtYd") (width 0.05) (tstamp c5c45a9c-af4f-49d7-b7e7-f20ff2a52c69))
    (fp_line (start 11.21 1.5) (end 11.21 -1.5) (layer "F.CrtYd") (width 0.05) (tstamp ca52615a-f8b3-4ae9-88aa-4bd42fa148c7))
    (fp_line (start 1.93 -1.25) (end 1.93 1.25) (layer "F.Fab") (width 0.1) (tstamp 458e1b1e-d794-4947-98ae-3f58bc881218))
    (fp_line (start 0 0) (end 1.93 0) (layer "F.Fab") (width 0.1) (tstamp 6022ac32-bcb5-4ac1-934c-0ff201a14c92))
    (fp_line (start 1.93 1.25) (end 8.23 1.25) (layer "F.Fab") (width 0.1) (tstamp 8956073e-7717-4d2e-83e6-ccfd3dba2220))
    (fp_line (start 8.23 1.25) (end 8.23 -1.25) (layer "F.Fab") (width 0.1) (tstamp 942e2d63-5087-4d17-9348-817e128e575f))
    (fp_line (start 10.16 0) (end 8.23 0) (layer "F.Fab") (width 0.1) (tstamp d415ae57-3b0c-40db-bb76-7224d2159442))
    (fp_line (start 8.23 -1.25) (end 1.93 -1.25) (layer "F.Fab") (width 0.1) (tstamp f86cfc1c-b2bc-4df9-b2a0-a974b211ed46))
    (pad "1" thru_hole circle (at 0 0) (size 1.6 1.6) (drill 0.8) (layers *.Cu *.Mask)
      (net 20 "Net-(R1-Pad2)") (pintype "passive") (tstamp df73fecd-1c05-40be-ac50-fc76da13f06c))
    (pad "2" thru_hole oval (at 10.16 0) (size 1.6 1.6) (drill 0.8) (layers *.Cu *.Mask)
      (net 4 "GND") (pintype "passive") (tstamp 1318c17b-6876-4797-a7da-5b9c4ed11949))
    (model "${KICAD6_3DMODEL_DIR}/Resistor_THT.3dshapes/R_Axial_DIN0207_L6.3mm_D2.5mm_P10.16mm_Horizontal.wrl"
      (offset (xyz 0 0 0))
      (scale (xyz 1 1 1))
      (rotate (xyz 0 0 0))
    )
  )

  (footprint "Eagle_WR-TBL Pluggable Connector (rev23b):691313510005" (layer "F.Cu")
    (tedit 0) (tstamp 6fcc7577-2a6f-4c47-bda6-1d4d8bd993d6)
    (at 175.26 96.52)
    (descr "<b>WR-TBL Serie 313 - 5.08 mm Close Horizontal PCB Header \n<br></b>Max Height = 8.5mm , Pitch 5.08mm , 5pins")
    (property "Sheetfile" "pressure_gauge.kicad_sch")
    (property "Sheetname" "")
    (path "/53d824ff-7023-447b-8df2-6956c9aeae39")
    (fp_text reference "J2" (at 0 -3) (layer "F.SilkS")
      (effects (font (size 1.1684 1.1684) (thickness 0.1016)) (justify bottom))
      (tstamp 17a4ba48-5df0-4eb0-b7fd-e45416bd1aed)
    )
    (fp_text value "Conn_01x05" (at -3.5 12) (layer "F.Fab")
      (effects (font (size 1.1684 1.1684) (thickness 0.1016)) (justify left bottom))
      (tstamp f91dfeee-9168-477d-b052-3bb595ef0966)
    )
    (fp_line (start -13.8 -2.1) (end 13.8 -2.1) (layer "F.SilkS") (width 0.2) (tstamp 061f9727-833d-4eae-9650-6598e7b80246))
    (fp_line (start 13.8 10.1) (end -13.8 10.1) (layer "F.SilkS") (width 0.2) (tstamp 90bd8259-5713-4036-bd35-b3fb8daa7005))
    (fp_line (start 13.8 -2.1) (end 13.8 10.1) (layer "F.SilkS") (width 0.2) (tstamp c570aa08-ba86-427e-89fa-dfec6ad42fc5))
    (fp_line (start -13.8 10.1) (end -13.8 -2.1) (layer "F.SilkS") (width 0.2) (tstamp eb99f8f6-6b37-49fc-b5d7-369a633bc654))
    (fp_circle (center -12.22 -0.9) (end -12.02 -0.9) (layer "F.SilkS") (width 0.4) (fill none) (tstamp cdbbd80e-63f0-4a59-bdbb-c32c55b02940))
    (fp_poly (pts
        (xy 14.05 10.35)
        (xy -14.05 10.35)
        (xy -14.05 -2.35)
        (xy 14.05 -2.35)
      ) (layer "F.CrtYd") (width 0) (fill solid) (tstamp 6209d796-db82-4bf7-8f1d-1f33f27f7150))
    (fp_line (start 13.7 -2) (end -13.7 -2) (layer "F.Fab") (width 0.1) (tstamp 0305aeef-7bcb-4533-bc28-8618679cff1c))
    (fp_line (start -13.7 10) (end 13.7 10) (layer "F.Fab") (width 0.1) (tstamp 54c7d1e9-3db3-4d89-ae8c-e83e1271fa5c))
    (fp_line (start -13.7 -2) (end -13.7 10) (layer "F.Fab") (width 0.1) (tstamp 8609f0a6-df3a-416a-99b0-e8a6d69eee2d))
    (fp_line (start 13.7 10) (end 13.7 -2) (layer "F.Fab") (width 0.1) (tstamp c1a7a2a7-0e51-4675-8b60-107aff46e65f))
    (pad "1" thru_hole circle (at -10.16 0) (size 2.4 2.4) (drill 1.6) (layers *.Cu *.Mask)
      (net 31 "Net-(J2-Pad1)") (pinfunction "Pin_1") (pintype "passive") (solder_mask_margin 0.1016) (tstamp 1ac4285d-44ef-4e54-b749-2ea167181c8b))
    (pad "2" thru_hole circle (at -5.08 0) (size 2.4 2.4) (drill 1.6) (layers *.Cu *.Mask)
      (net 4 "GND") (pinfunction "Pin_2") (pintype "passive") (solder_mask_margin 0.1016) (tstamp 108892f1-8582-4da5-a5cd-eb86dd3b4af5))
    (pad "3" thru_hole circle (at 0 0) (size 2.4 2.4) (drill 1.6) (layers *.Cu *.Mask)
      (net 30 "+24V") (pinfunction "Pin_3") (pintype "passive") (solder_mask_margin 0.1016) (tstamp b231d313-783c-44ae-9749-eb5dcb3707c0))
    (pad "4" thru_hole circle (at 5.08 0) (size 2.4 2.4) (drill 1.6) (layers *.Cu *.Mask)
      (net 4 "GND") (pinfunction "Pin_4") (pintype "passive") (solder_mask_margin 0.1016) (tstamp 5acfc856-c7c5-4912-8777-c1f1be456552))
    (pad "5" thru_hole circle (at 10.16 0) (size 2.4 2.4) (drill 1.6) (layers *.Cu *.Mask)
      (net 4 "GND") (pinfunction "Pin_5") (pintype "passive") (solder_mask_margin 0.1016) (tstamp fd35e22e-31e5-452b-8646-665a78d56237))
  )

  (footprint "Connector_Molex:Molex_SL_171971-0004_1x04_P2.54mm_Vertical" (layer "F.Cu")
    (tedit 5DA36613) (tstamp 8ee75306-fea4-4b03-a10c-c96ff4f4d65e)
    (at 190.5 58.42 -90)
    (descr "Molex Stackable Linear Connector, 171971-0004 (compatible alternatives: 171971-0104, 171971-0204), 4 Pins per row (https://www.molex.com/pdm_docs/sd/1719710002_sd.pdf), generated with kicad-footprint-generator")
    (tags "connector Molex SL vertical")
    (property "Sheetfile" "pressure_gauge.kicad_sch")
    (property "Sheetname" "")
    (path "/183d3d88-4672-4727-8dfd-6599110b29e8")
    (attr through_hole)
    (fp_text reference "J3" (at 3.81 -3.75 90) (layer "F.SilkS")
      (effects (font (size 1 1) (thickness 0.15)))
      (tstamp cb73afd9-e326-4323-95ca-ad681b3c26cb)
    )
    (fp_text value "Conn_01x04" (at 3.81 5.25 90) (layer "F.Fab")
      (effects (font (size 1 1) (thickness 0.15)))
      (tstamp 28942464-e58f-486d-be34-5627f5ddd675)
    )
    (fp_text user "${REFERENCE}" (at 3.81 1.85 90) (layer "F.Fab")
      (effects (font (size 1 1) (thickness 0.15)))
      (tstamp 10b8c734-d1fb-45fc-bbf8-120bf53e3a0c)
    )
    (fp_line (start 10.23 1.68) (end 10.1 1.68) (layer "F.SilkS") (width 0.12) (tstamp 2db44fa8-664c-4baf-9147-5e9a5b2ea430))
    (fp_line (start 10.1 -0.13) (end 10.23 -0.13) (layer "F.SilkS") (width 0.12) (tstamp 31df97e1-f6de-4c7b-b363-f6c24a529231))
    (fp_line (start 10.1 1.68) (end 10.1 -0.13) (layer "F.SilkS") (width 0.12) (tstamp 38228ab6-330c-41e6-aef4-e58c6126888b))
    (fp_line (start -0.11 2.66) (end -0.11 4.16) (layer "F.SilkS") (width 0.12) (tstamp 423aa97d-34a7-4ddf-b26f-ffa7c2ebcf10))
    (fp_line (start -2.91 -0.55) (end -2.91 -2.96) (layer "F.SilkS") (width 0.12) (tstamp 449be925-27fe-43c1-8313-0c1dce15507f))
    (fp_line (start 7.73 2.66) (end 10.23 2.66) (layer "F.SilkS") (width 0.12) (tstamp 4d78242e-2704-45d6-8846-5eb2602eab12))
    (fp_line (start -2.48 1.68) (end -2.61 1.68) (layer "F.SilkS") (width 0.12) (tstamp 555fd8ac-0ce0-4ecb-bce0-a014bd80f384))
    (fp_line (start -2.91 -2.96) (end -0.5 -2.96) (layer "F.SilkS") (width 0.12) (tstamp 5579e3e8-f2f1-4dd8-b208-897a1e44eb45))
    (fp_line (start -0.11 4.16) (end 7.73 4.16) (layer "F.SilkS") (width 0.12) (tstamp 55a1f804-a967-443e-a402-c444dcc0fe2a))
    (fp_line (start -2.48 -0.13) (end -2.48 1.68) (layer "F.SilkS") (width 0.12) (tstamp 5a3599cd-7fd2-47d3-b597-f34052cadbdd))
    (fp_line (start -2.61 -0.13) (end -2.48 -0.13) (layer "F.SilkS") (width 0.12) (tstamp 62d539a1-aff5-4b4d-b078-c27910753f23))
    (fp_line (start -2.61 2.66) (end -0.11 2.66) (layer "F.SilkS") (width 0.12) (tstamp 78c1fe79-f8fb-4583-b814-c3ebc8c96e6b))
    (fp_line (start 10.23 -2.66) (end -2.61 -2.66) (layer "F.SilkS") (width 0.12) (tstamp 9045dbfc-b239-4c5c-9c9e-1e1282de9a19))
    (fp_line (start 10.23 -0.13) (end 10.23 -2.66) (layer "F.SilkS") (width 0.12) (tstamp b415d3a1-671c-4738-a6d9-d4485bebe5b5))
    (fp_line (start -2.61 -2.66) (end -2.61 -0.13) (layer "F.SilkS") (width 0.12) (tstamp d6678f1b-810c-4ed2-822b-a44e1fc0cf97))
    (fp_line (start 7.73 4.16) (end 7.73 2.66) (layer "F.SilkS") (width 0.12) (tstamp d7065912-a2c1-47e5-b4dc-9b79d1ce3a02))
    (fp_line (start -2.61 1.68) (end -2.61 2.66) (layer "F.SilkS") (width 0.12) (tstamp f1aea1f0-c9e4-4f2c-a183-74ff38a555a7))
    (fp_line (start 10.23 2.66) (end 10.23 1.68) (layer "F.SilkS") (width 0.12) (tstamp f99d1d61-21b2-4a4e-ba08-3a947b37b9f1))
    (fp_line (start -3 4.55) (end 10.62 4.55) (layer "F.CrtYd") (width 0.05) (tstamp 020f89a4-6eb4-456c-9f1b-5340f65e22d2))
    (fp_line (start 10.62 -3.05) (end -3 -3.05) (layer "F.CrtYd") (width 0.05) (tstamp 1c3054a6-86fa-4783-a1c7-9642de482697))
    (fp_line (start -3 -3.05) (end -3 4.55) (layer "F.CrtYd") (width 0.05) (tstamp 67e03ab2-7a90-41de-9582-30bddc960689))
    (fp_line (start 10.62 4.55) (end 10.62 -3.05) (layer "F.CrtYd") (width 0.05) (tstamp f6f74e7a-0df7-40b3-9a1f-32135a246cf2))
    (fp_line (start -2.5 -0.24) (end -2.37 -0.24) (layer "F.Fab") (width 0.1) (tstamp 0baeab0c-58c6-4464-ba46-fab574f7c110))
    (fp_line (start 9.99 -0.24) (end 10.12 -0.24) (layer "F.Fab") (width 0.1) (tstamp 1f589910-38e5-4671-8e2a-138ebf909de7))
    (fp_line (start 0 4.05) (end 7.62 4.05) (layer "F.Fab") (width 0.1) (tstamp 3c5c6a77-8d0f-4738-a0d2-6648ce895841))
    (fp_line (start 0 -1.842893) (end -0.5 -2.55) (layer "F.Fab") (width 0.1) (tstamp 491d4405-c5f3-49df-93ea-bb3e2a9222fe))
    (fp_line (start 7.62 4.05) (end 7.62 2.55) (layer "F.Fab") (width 0.1) (tstamp 4d3196ec-ab68-4c88-9eae-59aaa69e9443))
    (fp_line (start -2.37 1.79) (end -2.5 1.79) (layer "F.Fab") (width 0.1) (tstamp 526fac89-6d2d-4972-8056-0a453cd046dc))
    (fp_line (start 10.12 -2.55) (end -2.5 -2.55) (layer "F.Fab") (width 0.1) (tstamp 60738fb7-1def-41cd-88dd-7535d754c78d))
    (fp_line (start -2.5 1.79) (end -2.5 2.55) (layer "F.Fab") (width 0.1) (tstamp 61a7825b-3200-4ad4-b40f-80caa9caddcc))
    (fp_line (start 0 2.55) (end 0 4.05) (layer "F.Fab") (width 0.1) (tstamp 61ada8fa-d282-4659-9c34-d31fa2ba0a2f))
    (fp_line (start -2.5 2.55) (end 10.12 2.55) (layer "F.Fab") (width 0.1) (tstamp 8d5433fb-7ee4-4b41-af40-7452f5a78982))
    (fp_line (start -2.37 -0.24) (end -2.37 1.79) (layer "F.Fab") (width 0.1) (tstamp 905a3331-61d9-4ec5-9d95-9d66af1d74a0))
    (fp_line (start 10.12 1.79) (end 9.99 1.79) (layer "F.Fab") (width 0.1) (tstamp 96508fa6-3a21-431c-b350-c0e303db8c41))
    (fp_line (start -2.5 -2.55) (end -2.5 -0.24) (layer "F.Fab") (width 0.1) (tstamp c3664590-fc98-4c5f-8b60-da7c325d88d5))
    (fp_line (start 10.12 -0.24) (end 10.12 -2.55) (layer "F.Fab") (width 0.1) (tstamp c730ef4a-1986-4c33-939f-703f71627241))
    (fp_line (start 10.12 2.55) (end 10.12 1.79) (layer "F.Fab") (width 0.1) (tstamp ed10a8c5-a819-47e8-ae0c-eb33f0ad50c6))
    (fp_line (start 0.5 -2.55) (end 0 -1.842893) (layer "F.Fab") (width 0.1) (tstamp f49dc38e-df22-44e0-ab37-55bbc2a0af3b))
    (fp_line (start 9.99 1.79) (end 9.99 -0.24) (layer "F.Fab") (width 0.1) (tstamp fcc057ea-3811-4a48-9435-7fcbc28553a8))
    (pad "1" thru_hole roundrect (at 0 0 270) (size 1.74 1.74) (drill 1.09) (layers *.Cu *.Mask) (roundrect_rratio 0.143678)
      (net 23 "Net-(A1-Pad23)") (pinfunction "Pin_1") (pintype "passive") (tstamp b47c8dbb-79dc-44bf-9fd2-dd2cd76b4cb8))
    (pad "2" thru_hole circle (at 2.54 0 270) (size 1.74 1.74) (drill 1.09) (layers *.Cu *.Mask)
      (net 24 "Net-(A1-Pad24)") (pinfunction "Pin_2") (pintype "passive") (tstamp ba3a221b-cf60-40a9-ad61-134a1b137a53))
    (pad "3" thru_hole circle (at 5.08 0 270) (size 1.74 1.74) (drill 1.09) (layers *.Cu *.Mask)
      (net 4 "GND") (pinfunction "Pin_3") (pintype "passive") (tstamp 6ec6539c-0346-47a5-b295-e3965d7bd58b))
    (pad "4" thru_hole circle (at 7.62 0 270) (size 1.74 1.74) (drill 1.09) (layers *.Cu *.Mask)
      (net 27 "+5V") (pinfunction "Pin_4") (pintype "passive") (tstamp eb67ce4d-b2e3-4d63-aaab-066f4ced63c4))
    (model "${KICAD6_3DMODEL_DIR}/Connector_Molex.3dshapes/Molex_SL_171971-0004_1x04_P2.54mm_Vertical.wrl"
      (offset (xyz 0 0 0))
      (scale (xyz 1 1 1))
      (rotate (xyz 0 0 0))
    )
  )

  (footprint "Connector_PinHeader_2.54mm:PinHeader_1x07_P2.54mm_Vertical" (layer "F.Cu")
    (tedit 59FED5CC) (tstamp cc89263b-bf8f-42c8-abef-8713aaf80733)
    (at 119.38 68.58)
    (descr "Through hole straight pin header, 1x07, 2.54mm pitch, single row")
    (tags "Through hole pin header THT 1x07 2.54mm single row")
    (property "Sheetfile" "pressure_gauge.kicad_sch")
    (property "Sheetname" "")
    (path "/e6e40a90-8935-402f-a9aa-d25df4934e6a")
    (attr through_hole)
    (fp_text reference "SW1" (at 0 -2.33) (layer "F.SilkS")
      (effects (font (size 1 1) (thickness 0.15)))
      (tstamp 65a2747e-748d-4df2-aeba-9246f9f7f2e7)
    )
    (fp_text value "SW_Rotary1x6" (at 0 17.57) (layer "F.Fab")
      (effects (font (size 1 1) (thickness 0.15)))
      (tstamp 4ddd4814-c2c7-4d50-90c2-0063cc28e428)
    )
    (fp_text user "${REFERENCE}" (at 0 7.62 90) (layer "F.Fab")
      (effects (font (size 1 1) (thickness 0.15)))
      (tstamp b9a47a25-c463-41d6-b6aa-b6e2527788bd)
    )
    (fp_line (start -1.33 0) (end -1.33 -1.33) (layer "F.SilkS") (width 0.12) (tstamp 07311996-9e28-4884-be44-7b8b10d5915e))
    (fp_line (start -1.33 1.27) (end 1.33 1.27) (layer "F.SilkS") (width 0.12) (tstamp 25cbbe05-4cb2-4ea3-a8d0-e2a499419012))
    (fp_line (start -1.33 1.27) (end -1.33 16.57) (layer "F.SilkS") (width 0.12) (tstamp 8b180a96-795e-4850-95b0-a197ac95813e))
    (fp_line (start 1.33 1.27) (end 1.33 16.57) (layer "F.SilkS") (width 0.12) (tstamp 98422f10-4dff-498c-bc2d-86f230d711a0))
    (fp_line (start -1.33 16.57) (end 1.33 16.57) (layer "F.SilkS") (width 0.12) (tstamp be9bcd43-8753-4224-8fb6-8572919b20b4))
    (fp_line (start -1.33 -1.33) (end 0 -1.33) (layer "F.SilkS") (width 0.12) (tstamp dd83fd19-cf36-4972-86a6-5a65dfce57b0))
    (fp_line (start 1.8 17.05) (end 1.8 -1.8) (layer "F.CrtYd") (width 0.05) (tstamp 455365f6-cd31-47ac-83ab-ce7d7e6cd18f))
    (fp_line (start 1.8 -1.8) (end -1.8 -1.8) (layer "F.CrtYd") (width 0.05) (tstamp 524a79a6-f7e4-48b7-b928-9a1a315eae48))
    (fp_line (start -1.8 17.05) (end 1.8 17.05) (layer "F.CrtYd") (width 0.05) (tstamp 943340b0-d0d7-44c1-b550-f2481fd06a40))
    (fp_line (start -1.8 -1.8) (end -1.8 17.05) (layer "F.CrtYd") (width 0.05) (tstamp ee4e5070-648e-4ebc-a69d-f5250071462f))
    (fp_line (start 1.27 -1.27) (end 1.27 16.51) (layer "F.Fab") (width 0.1) (tstamp 0f1556d8-11e5-4e6b-9828-34b9834b063e))
    (fp_line (start -1.27 16.51) (end -1.27 -0.635) (layer "F.Fab") (width 0.1) (tstamp 92e1bc9b-a192-4ffd-bd0c-fa856c5098bf))
    (fp_line (start -1.27 -0.635) (end -0.635 -1.27) (layer "F.Fab") (width 0.1) (tstamp 99885523-3332-46db-bedc-a8d565ea4575))
    (fp_line (start 1.27 16.51) (end -1.27 16.51) (layer "F.Fab") (width 0.1) (tstamp ae75bae0-bc72-418d-be55-0338fa0d3a50))
    (fp_line (start -0.635 -1.27) (end 1.27 -1.27) (layer "F.Fab") (width 0.1) (tstamp ce4c3627-d696-406a-b0d8-387b043503f3))
    (pad "1" thru_hole rect (at 0 0) (size 1.7 1.7) (drill 1) (layers *.Cu *.Mask)
      (net 4 "GND") (pinfunction "1") (pintype "passive") (tstamp d8179f97-6c22-4f39-8c47-cde0428c9d47))
    (pad "2" thru_hole oval (at 0 2.54) (size 1.7 1.7) (drill 1) (layers *.Cu *.Mask)
      (net 5 "Net-(A1-Pad5)") (pinfunction "2") (pintype "passive") (tstamp fa6907c2-045e-41ac-bd29-4c7fc5df274f))
    (pad "3" thru_hole oval (at 0 5.08) (size 1.7 1.7) (drill 1) (layers *.Cu *.Mask)
      (net 6 "Net-(A1-Pad6)") (pinfunction "3") (pintype "passive") (tstamp 1cacb324-a128-47b6-acb3-50f8381e707f))
    (pad "4" thru_hole oval (at 0 7.62) (size 1.7 1.7) (drill 1) (layers *.Cu *.Mask)
      (net 7 "Net-(A1-Pad7)") (pinfunction "4") (pintype "passive") (tstamp 7c2787e4-7fe4-4c95-83e5-bdb4d3186d38))
    (pad "5" thru_hole oval (at 0 10.16) (size 1.7 1.7) (drill 1) (layers *.Cu *.Mask)
      (net 8 "Net-(A1-Pad8)") (pinfunction "5") (pintype "passive") (tstamp f6163a48-b256-4408-965e-01a049149afd))
    (pad "6" thru_hole oval (at 0 12.7) (size 1.7 1.7) (drill 1) (layers *.Cu *.Mask)
      (net 9 "Net-(A1-Pad9)") (pinfunction "6") (pintype "passive") (tstamp e77b192a-60d6-4aae-821a-f0949d937b4a))
    (pad "7" thru_hole oval (at 0 15.24) (size 1.7 1.7) (drill 1) (layers *.Cu *.Mask)
      (net 10 "Net-(A1-Pad10)") (pinfunction "7") (pintype "passive") (tstamp efa0d66f-6d8c-470a-aa41-1d467b520a51))
    (model "${KICAD6_3DMODEL_DIR}/Connector_PinHeader_2.54mm.3dshapes/PinHeader_1x07_P2.54mm_Vertical.wrl"
      (offset (xyz 0 0 0))
      (scale (xyz 1 1 1))
      (rotate (xyz 0 0 0))
    )
  )

  (gr_circle (center 106.68 53.34) (end 108.18 53.34) (layer "Edge.Cuts") (width 0.1) (fill none) (tstamp 06c0c171-d4d7-410b-ada4-a3d46addb79e))
  (gr_circle (center 198.12 53.34) (end 199.62 53.34) (layer "Edge.Cuts") (width 0.1) (fill none) (tstamp 1b7fd73a-cde0-4288-9303-3dec53b8f66a))
  (gr_line (start 201.93 100.33) (end 102.87 100.33) (layer "Edge.Cuts") (width 0.1) (tstamp 636b9f88-dbf2-49f9-ac0e-b0bd5d95e926))
  (gr_circle (center 152.4 53.34) (end 153.9 53.34) (layer "Edge.Cuts") (width 0.1) (fill none) (tstamp 87799e97-b860-4080-881a-d231d7762e42))
  (gr_line (start 102.87 49.53) (end 201.93 49.53) (layer "Edge.Cuts") (width 0.1) (tstamp 879c0219-bdd0-4c2b-a29c-dc34cf0fb94a))
  (gr_line (start 102.87 100.33) (end 102.87 49.53) (layer "Edge.Cuts") (width 0.1) (tstamp 8e996a3d-4432-4e8b-968f-d952f432d72c))
  (gr_circle (center 152.4 96.52) (end 153.9 96.52) (layer "Edge.Cuts") (width 0.1) (fill none) (tstamp a8d603b2-eb91-4a63-b956-feb7ae5102ea))
  (gr_circle (center 198.12 96.52) (end 199.62 96.52) (layer "Edge.Cuts") (width 0.1) (fill none) (tstamp aba6d27a-a882-4296-8052-41a32893c5e5))
  (gr_line (start 201.93 49.53) (end 201.93 100.33) (layer "Edge.Cuts") (width 0.1) (tstamp bac186cb-6872-406d-bc14-bf0f876ffb6c))
  (gr_circle (center 106.68 96.52) (end 108.18 96.52) (layer "Edge.Cuts") (width 0.1) (fill none) (tstamp dc5626e1-e6e6-4980-a8b2-8c86e23d36a0))

  (segment (start 170.18 86.36) (end 170.18 96.52) (width 1) (layer "B.Cu") (net 4) (tstamp 03c3dded-f0b4-427a-80e2-afaf25051ed3))
  (segment (start 195.58 81.28) (end 180.34 81.28) (width 1) (layer "B.Cu") (net 4) (tstamp 088cd52c-a251-42c3-a964-feb7a32d0d97))
  (segment (start 180.34 81.28) (end 180.34 96.52) (width 1) (layer "B.Cu") (net 4) (tstamp 0d098a3c-ba21-43c5-8e89-11c4453abc4e))
  (segment (start 119.38 68.58) (end 124.46 68.58) (width 1) (layer "B.Cu") (net 4) (tstamp 1493e79a-6512-46a0-adb7-0fb3cdc19931))
  (segment (start 170.18 81.28) (end 170.18 86.36) (width 1) (layer "B.Cu") (net 4) (tstamp 2ce5d0b9-363e-41e8-b1cc-b3d87c33c430))
  (segment (start 180.34 63.5) (end 139.7 63.5) (width 1) (layer "B.Cu") (net 4) (tstamp 31e9e87f-834a-409c-83f9-1510c76d7c4f))
  (segment (start 180.34 96.52) (end 185.42 96.52) (width 1) (layer "B.Cu") (net 4) (tstamp 64eff77b-63da-478b-b4c5-c31ea825f38c))
  (segment (start 175.26 81.28) (end 170.18 81.28) (width 1) (layer "B.Cu") (net 4) (tstamp 95e6113e-cc56-40a5-ad07-b9d918ac3c67))
  (segment (start 175.26 81.28) (end 180.34 81.28) (width 1) (layer "B.Cu") (net 4) (tstamp 9c7f14c5-370c-49bd-81b3-3bd948b3a6d1))
  (segment (start 190.5 63.5) (end 180.34 63.5) (width 1) (layer "B.Cu") (net 4) (tstamp c424b656-5ff1-44e8-b36b-f696f3dd51d3))
  (segment (start 170.18 86.36) (end 157.48 86.36) (width 1) (layer "B.Cu") (net 4) (tstamp e7a9a30f-e18e-439c-93c5-983836230df6))
  (segment (start 190.5 63.5) (end 195.58 63.5) (width 1) (layer "B.Cu") (net 4) (tstamp ea6fe806-79c4-4b25-b6f7-2868e86b0c32))
  (segment (start 195.58 63.5) (end 195.58 81.28) (width 1) (layer "B.Cu") (net 4) (tstamp ebb2b1e5-2e30-4cc5-b26b-c1904530253b))
  (segment (start 119.38 71.12) (end 124.46 71.12) (width 1) (layer "B.Cu") (net 5) (tstamp 45010d95-7262-431d-b9b1-83a7a7793b08))
  (segment (start 119.38 73.66) (end 124.46 73.66) (width 1) (layer "B.Cu") (net 6) (tstamp 3c3f7774-b5f4-44a8-8a84-0d3abc985d7b))
  (segment (start 119.38 76.2) (end 124.46 76.2) (width 1) (layer "B.Cu") (net 7) (tstamp 5e5dcd6b-f26a-4a3d-9c33-2566ed3d994d))
  (segment (start 119.38 78.74) (end 124.46 78.74) (width 1) (layer "B.Cu") (net 8) (tstamp 69bdaaa9-22b2-484d-991c-d913a052f8eb))
  (segment (start 119.38 81.28) (end 124.46 81.28) (width 1) (layer "B.Cu") (net 9) (tstamp 72ee5bed-0dc3-49d6-af0a-568ea5fa0454))
  (segment (start 119.38 83.82) (end 124.46 83.82) (width 1) (layer "B.Cu") (net 10) (tstamp 04a1e944-8e51-454d-b0b2-e00781643fe7))
  (segment (start 139.7 86.36) (end 147.32 86.36) (width 1) (layer "B.Cu") (net 20) (tstamp 0bd27f05-5dde-4292-8a07-7b81cfde6247))
  (segment (start 147.32 86.36) (end 147.32 88.9) (width 1) (layer "B.Cu") (net 20) (tstamp 74f5566f-4dec-490f-83d9-fed5abf9265b))
  (segment (start 147.32 78.86) (end 147.32 86.36) (width 1) (layer "B.Cu") (net 20) (tstamp 9094da97-6ad9-47b7-8fd4-2c47607d0c29))
  (segment (start 132.08 55.88) (end 132.08 78.74) (width 1) (layer "B.Cu") (net 23) (tstamp 21813828-f403-4196-9c49-07e3d3ab2baf))
  (segment (start 190.5 55.88) (end 132.08 55.88) (width 1) (layer "B.Cu") (net 23) (tstamp 688cd601-d08b-4f15-8bd4-2cc6ca06db6a))
  (segment (start 190.5 58.42) (end 190.5 55.88) (width 1) (layer "B.Cu") (net 23) (tstamp aa13de4f-53f9-42df-9718-3d0c8488ecf3))
  (segment (start 132.08 78.74) (end 139.7 78.74) (width 1) (layer "B.Cu") (net 23) (tstamp c130e031-86c4-4e03-bc3b-2cdb53eb3e5f))
  (segment (start 185.42 58.42) (end 185.42 60.96) (width 1) (layer "B.Cu") (net 24) (tstamp 60b2cf3a-f394-4f24-a7bb-643e360d9be9))
  (segment (start 134.62 76.2) (end 134.62 58.42) (width 1) (layer "B.Cu") (net 24) (tstamp 785efec5-15c7-45f5-966b-503edf5a70b2))
  (segment (start 139.7 76.2) (end 134.62 76.2) (width 1) (layer "B.Cu") (net 24) (tstamp 7c7bd7e3-6946-41e2-916d-5dcfd27e2c87))
  (segment (start 134.62 58.42) (end 185.42 58.42) (width 1) (layer "B.Cu") (net 24) (tstamp 9e0f616e-2ef6-49d0-afff-a0fcaf09c4d0))
  (segment (start 185.42 60.96) (end 190.5 60.96) (width 1) (layer "B.Cu") (net 24) (tstamp adce9c3f-8b2d-4560-aebf-da4d4535729e))
  (segment (start 190.5 66.04) (end 175.26 66.04) (width 1) (layer "B.Cu") (net 27) (tstamp 16833d4c-4f70-4483-8035-4ba4b4c9296c))
  (segment (start 175.26 66.04) (end 175.26 68.58) (width 1) (layer "B.Cu") (net 27) (tstamp 62a05a0b-2fd1-4b96-a425-f5ebe85eadbf))
  (segment (start 139.7 68.58) (end 147.32 68.58) (width 1) (layer "B.Cu") (net 27) (tstamp 9a26a1bb-9d81-48ea-ab75-2d031704c7a7))
  (segment (start 175.26 71.12) (end 175.26 76.28) (width 1) (layer "B.Cu") (net 27) (tstamp 9e25d0f0-06e3-46c7-8527-a278723e10bf))
  (segment (start 175.26 68.58) (end 175.26 71.12) (width 1) (layer "B.Cu") (net 27) (tstamp b666709a-827c-4359-82f5-55e58b6f1a7e))
  (segment (start 147.32 68.58) (end 175.26 68.58) (width 1) (layer "B.Cu") (net 27) (tstamp ccc527ec-e51a-4433-921a-7c03b6ae9e92))
  (segment (start 147.32 71.24) (end 147.32 68.58) (width 1) (layer "B.Cu") (net 27) (tstamp d80bc58b-5f1d-4843-9952-a006a42368d1))
  (segment (start 175.26 86.28) (end 175.26 96.52) (width 1) (layer "B.Cu") (net 30) (tstamp 129df1c5-897e-4fc0-90bc-7202815fbc09))
  (segment (start 165.1 88.9) (end 165.1 96.52) (width 1) (layer "B.Cu") (net 31) (tstamp 55318254-9fec-4a7d-a1b7-d558b4fce6aa))
  (segment (start 157.48 88.9) (end 165.1 88.9) (width 1) (layer "B.Cu") (net 31) (tstamp daa3b30c-99e8-41c6-9d0b-0041ac9e8ddc))

)
